%YAML 1.1
%TAG !u! tag:unity3d.com,2011:
--- !u!29 &1
OcclusionCullingSettings:
  m_ObjectHideFlags: 0
  serializedVersion: 2
  m_OcclusionBakeSettings:
    smallestOccluder: 5
    smallestHole: 0.25
    backfaceThreshold: 100
  m_SceneGUID: 00000000000000000000000000000000
  m_OcclusionCullingData: {fileID: 0}
--- !u!104 &2
RenderSettings:
  m_ObjectHideFlags: 0
  serializedVersion: 9
  m_Fog: 0
  m_FogColor: {r: 0.5, g: 0.5, b: 0.5, a: 1}
  m_FogMode: 3
  m_FogDensity: 0.01
  m_LinearFogStart: 0
  m_LinearFogEnd: 300
  m_AmbientSkyColor: {r: 0.212, g: 0.227, b: 0.259, a: 1}
  m_AmbientEquatorColor: {r: 0.114, g: 0.125, b: 0.133, a: 1}
  m_AmbientGroundColor: {r: 0.047, g: 0.043, b: 0.035, a: 1}
  m_AmbientIntensity: 1
  m_AmbientMode: 0
  m_SubtractiveShadowColor: {r: 0.42, g: 0.478, b: 0.627, a: 1}
  m_SkyboxMaterial: {fileID: 10304, guid: 0000000000000000f000000000000000, type: 0}
  m_HaloStrength: 0.5
  m_FlareStrength: 1
  m_FlareFadeSpeed: 3
  m_HaloTexture: {fileID: 0}
  m_SpotCookie: {fileID: 10001, guid: 0000000000000000e000000000000000, type: 0}
  m_DefaultReflectionMode: 0
  m_DefaultReflectionResolution: 128
  m_ReflectionBounces: 1
  m_ReflectionIntensity: 1
  m_CustomReflection: {fileID: 0}
  m_Sun: {fileID: 170076734}
  m_IndirectSpecularColor: {r: 0.44657844, g: 0.49641234, b: 0.57481676, a: 1}
  m_UseRadianceAmbientProbe: 0
--- !u!157 &3
LightmapSettings:
  m_ObjectHideFlags: 0
  serializedVersion: 11
  m_GIWorkflowMode: 0
  m_GISettings:
    serializedVersion: 2
    m_BounceScale: 1
    m_IndirectOutputScale: 1
    m_AlbedoBoost: 1
    m_EnvironmentLightingMode: 0
    m_EnableBakedLightmaps: 1
    m_EnableRealtimeLightmaps: 0
  m_LightmapEditorSettings:
    serializedVersion: 12
    m_Resolution: 2
    m_BakeResolution: 10
    m_AtlasSize: 512
    m_AO: 0
    m_AOMaxDistance: 1
    m_CompAOExponent: 1
    m_CompAOExponentDirect: 0
    m_ExtractAmbientOcclusion: 0
    m_Padding: 2
    m_LightmapParameters: {fileID: 0}
    m_LightmapsBakeMode: 1
    m_TextureCompression: 1
    m_FinalGather: 0
    m_FinalGatherFiltering: 1
    m_FinalGatherRayCount: 256
    m_ReflectionCompression: 2
    m_MixedBakeMode: 2
    m_BakeBackend: 1
    m_PVRSampling: 1
    m_PVRDirectSampleCount: 32
    m_PVRSampleCount: 256
    m_PVRBounces: 2
    m_PVREnvironmentSampleCount: 256
    m_PVREnvironmentReferencePointCount: 2048
    m_PVRFilteringMode: 2
    m_PVRDenoiserTypeDirect: 0
    m_PVRDenoiserTypeIndirect: 0
    m_PVRDenoiserTypeAO: 0
    m_PVRFilterTypeDirect: 0
    m_PVRFilterTypeIndirect: 0
    m_PVRFilterTypeAO: 0
    m_PVREnvironmentMIS: 0
    m_PVRCulling: 1
    m_PVRFilteringGaussRadiusDirect: 1
    m_PVRFilteringGaussRadiusIndirect: 5
    m_PVRFilteringGaussRadiusAO: 2
    m_PVRFilteringAtrousPositionSigmaDirect: 0.5
    m_PVRFilteringAtrousPositionSigmaIndirect: 2
    m_PVRFilteringAtrousPositionSigmaAO: 1
    m_ExportTrainingData: 0
    m_TrainingDataDestination: TrainingData
    m_LightProbeSampleCountMultiplier: 4
  m_LightingDataAsset: {fileID: 0}
  m_UseShadowmask: 1
--- !u!196 &4
NavMeshSettings:
  serializedVersion: 2
  m_ObjectHideFlags: 0
  m_BuildSettings:
    serializedVersion: 2
    agentTypeID: 0
    agentRadius: 0.5
    agentHeight: 2
    agentSlope: 45
    agentClimb: 0.4
    ledgeDropHeight: 0
    maxJumpAcrossDistance: 0
    minRegionArea: 2
    manualCellSize: 0
    cellSize: 0.16666667
    manualTileSize: 0
    tileSize: 256
    accuratePlacement: 0
    debug:
      m_Flags: 0
  m_NavMeshData: {fileID: 0}
--- !u!1 &170076733
GameObject:
  m_ObjectHideFlags: 0
  m_CorrespondingSourceObject: {fileID: 0}
  m_PrefabInstance: {fileID: 0}
  m_PrefabAsset: {fileID: 0}
  serializedVersion: 6
  m_Component:
  - component: {fileID: 170076735}
  - component: {fileID: 170076734}
  m_Layer: 0
  m_Name: Directional Light
  m_TagString: Untagged
  m_Icon: {fileID: 0}
  m_NavMeshLayer: 0
  m_StaticEditorFlags: 0
  m_IsActive: 1
--- !u!108 &170076734
Light:
  m_ObjectHideFlags: 0
  m_CorrespondingSourceObject: {fileID: 0}
  m_PrefabInstance: {fileID: 0}
  m_PrefabAsset: {fileID: 0}
  m_GameObject: {fileID: 170076733}
  m_Enabled: 1
  serializedVersion: 10
  m_Type: 1
  m_Shape: 0
  m_Color: {r: 1, g: 0.95686275, b: 0.8392157, a: 1}
  m_Intensity: 1
  m_Range: 10
  m_SpotAngle: 30
  m_InnerSpotAngle: 21.802082
  m_CookieSize: 10
  m_Shadows:
    m_Type: 2
    m_Resolution: -1
    m_CustomResolution: -1
    m_Strength: 1
    m_Bias: 0.05
    m_NormalBias: 0.4
    m_NearPlane: 0.2
    m_CullingMatrixOverride:
      e00: 1
      e01: 0
      e02: 0
      e03: 0
      e10: 0
      e11: 1
      e12: 0
      e13: 0
      e20: 0
      e21: 0
      e22: 1
      e23: 0
      e30: 0
      e31: 0
      e32: 0
      e33: 1
    m_UseCullingMatrixOverride: 0
  m_Cookie: {fileID: 0}
  m_DrawHalo: 0
  m_Flare: {fileID: 0}
  m_RenderMode: 0
  m_CullingMask:
    serializedVersion: 2
    m_Bits: 4294967295
  m_RenderingLayerMask: 1
  m_Lightmapping: 1
  m_LightShadowCasterMode: 0
  m_AreaSize: {x: 1, y: 1}
  m_BounceIntensity: 1
  m_ColorTemperature: 6570
  m_UseColorTemperature: 0
  m_BoundingSphereOverride: {x: 0, y: 0, z: 0, w: 0}
  m_UseBoundingSphereOverride: 0
  m_ShadowRadius: 0
  m_ShadowAngle: 0
--- !u!4 &170076735
Transform:
  m_ObjectHideFlags: 0
  m_CorrespondingSourceObject: {fileID: 0}
  m_PrefabInstance: {fileID: 0}
  m_PrefabAsset: {fileID: 0}
  m_GameObject: {fileID: 170076733}
  m_LocalRotation: {x: 0.40821788, y: -0.23456968, z: 0.10938163, w: 0.8754261}
  m_LocalPosition: {x: 0, y: 3, z: 0}
  m_LocalScale: {x: 1, y: 1, z: 1}
  m_Children: []
  m_Father: {fileID: 0}
  m_RootOrder: 0
  m_LocalEulerAnglesHint: {x: 50, y: -30, z: 0}
--- !u!1 &409173757
GameObject:
  m_ObjectHideFlags: 0
  m_CorrespondingSourceObject: {fileID: 0}
  m_PrefabInstance: {fileID: 0}
  m_PrefabAsset: {fileID: 0}
  serializedVersion: 6
  m_Component:
  - component: {fileID: 409173758}
  - component: {fileID: 409173761}
  - component: {fileID: 409173760}
  - component: {fileID: 409173759}
  m_Layer: 0
  m_Name: Plane
  m_TagString: Untagged
  m_Icon: {fileID: 0}
  m_NavMeshLayer: 0
  m_StaticEditorFlags: 0
  m_IsActive: 1
--- !u!4 &409173758
Transform:
  m_ObjectHideFlags: 0
  m_CorrespondingSourceObject: {fileID: 0}
  m_PrefabInstance: {fileID: 0}
  m_PrefabAsset: {fileID: 0}
  m_GameObject: {fileID: 409173757}
  m_LocalRotation: {x: 0.025732687, y: -0.008085941, z: -0.027446039, w: 0.99925935}
  m_LocalPosition: {x: -0.11974547, y: 0.06850666, z: -0.27696127}
  m_LocalScale: {x: 0.3336427, y: 0.47746152, z: 0.33359662}
  m_Children: []
  m_Father: {fileID: 1222712728}
  m_RootOrder: 9
  m_LocalEulerAnglesHint: {x: 0, y: 0, z: 0}
--- !u!64 &409173759
MeshCollider:
  m_ObjectHideFlags: 0
  m_CorrespondingSourceObject: {fileID: 0}
  m_PrefabInstance: {fileID: 0}
  m_PrefabAsset: {fileID: 0}
  m_GameObject: {fileID: 409173757}
  m_Material: {fileID: 0}
  m_IsTrigger: 0
  m_Enabled: 1
  serializedVersion: 3
  m_Convex: 0
  m_CookingOptions: 30
  m_Mesh: {fileID: 10209, guid: 0000000000000000e000000000000000, type: 0}
--- !u!23 &409173760
MeshRenderer:
  m_ObjectHideFlags: 0
  m_CorrespondingSourceObject: {fileID: 0}
  m_PrefabInstance: {fileID: 0}
  m_PrefabAsset: {fileID: 0}
  m_GameObject: {fileID: 409173757}
  m_Enabled: 1
  m_CastShadows: 1
  m_ReceiveShadows: 1
  m_DynamicOccludee: 1
  m_MotionVectors: 1
  m_LightProbeUsage: 1
  m_ReflectionProbeUsage: 1
  m_RayTracingMode: 2
  m_RenderingLayerMask: 1
  m_RendererPriority: 0
  m_Materials:
  - {fileID: 2100000, guid: da186258f00c04964a27ec1fd0344eaf, type: 2}
  m_StaticBatchInfo:
    firstSubMesh: 0
    subMeshCount: 0
  m_StaticBatchRoot: {fileID: 0}
  m_ProbeAnchor: {fileID: 0}
  m_LightProbeVolumeOverride: {fileID: 0}
  m_ScaleInLightmap: 1
  m_ReceiveGI: 1
  m_PreserveUVs: 0
  m_IgnoreNormalsForChartDetection: 0
  m_ImportantGI: 0
  m_StitchLightmapSeams: 1
  m_SelectedEditorRenderState: 3
  m_MinimumChartSize: 4
  m_AutoUVMaxDistance: 0.5
  m_AutoUVMaxAngle: 89
  m_LightmapParameters: {fileID: 0}
  m_SortingLayerID: 0
  m_SortingLayer: 0
  m_SortingOrder: 0
--- !u!33 &409173761
MeshFilter:
  m_ObjectHideFlags: 0
  m_CorrespondingSourceObject: {fileID: 0}
  m_PrefabInstance: {fileID: 0}
  m_PrefabAsset: {fileID: 0}
  m_GameObject: {fileID: 409173757}
  m_Mesh: {fileID: 10209, guid: 0000000000000000e000000000000000, type: 0}
--- !u!4 &695735382 stripped
Transform:
  m_CorrespondingSourceObject: {fileID: 494530, guid: 5d47068e592f24de68efe2fc00b2e73b,
    type: 3}
  m_PrefabInstance: {fileID: 1240210131}
  m_PrefabAsset: {fileID: 0}
--- !u!1001 &797403353
PrefabInstance:
  m_ObjectHideFlags: 0
  serializedVersion: 2
  m_Modification:
    m_TransformParent: {fileID: 695735382}
    m_Modifications:
    - target: {fileID: 1082729975072450, guid: 8e4e43b7ef4a54c3ba0d2ab823bc9d67, type: 3}
      propertyPath: m_Name
      value: SingerPrefab
      objectReference: {fileID: 0}
    - target: {fileID: 4751312831842026, guid: 8e4e43b7ef4a54c3ba0d2ab823bc9d67, type: 3}
      propertyPath: m_LocalPosition.x
      value: 0.13
      objectReference: {fileID: 0}
    - target: {fileID: 4751312831842026, guid: 8e4e43b7ef4a54c3ba0d2ab823bc9d67, type: 3}
      propertyPath: m_LocalPosition.y
      value: 0.145
      objectReference: {fileID: 0}
    - target: {fileID: 4751312831842026, guid: 8e4e43b7ef4a54c3ba0d2ab823bc9d67, type: 3}
      propertyPath: m_LocalPosition.z
      value: 0.153
      objectReference: {fileID: 0}
    - target: {fileID: 4751312831842026, guid: 8e4e43b7ef4a54c3ba0d2ab823bc9d67, type: 3}
      propertyPath: m_LocalRotation.x
      value: -0.025732685
      objectReference: {fileID: 0}
    - target: {fileID: 4751312831842026, guid: 8e4e43b7ef4a54c3ba0d2ab823bc9d67, type: 3}
      propertyPath: m_LocalRotation.y
      value: 0.00808594
      objectReference: {fileID: 0}
    - target: {fileID: 4751312831842026, guid: 8e4e43b7ef4a54c3ba0d2ab823bc9d67, type: 3}
      propertyPath: m_LocalRotation.z
      value: 0.027446037
      objectReference: {fileID: 0}
    - target: {fileID: 4751312831842026, guid: 8e4e43b7ef4a54c3ba0d2ab823bc9d67, type: 3}
      propertyPath: m_LocalRotation.w
      value: 0.9992593
      objectReference: {fileID: 0}
    - target: {fileID: 4751312831842026, guid: 8e4e43b7ef4a54c3ba0d2ab823bc9d67, type: 3}
      propertyPath: m_RootOrder
      value: 0
      objectReference: {fileID: 0}
    - target: {fileID: 4751312831842026, guid: 8e4e43b7ef4a54c3ba0d2ab823bc9d67, type: 3}
      propertyPath: m_LocalEulerAnglesHint.x
      value: -2.973
      objectReference: {fileID: 0}
    - target: {fileID: 4751312831842026, guid: 8e4e43b7ef4a54c3ba0d2ab823bc9d67, type: 3}
      propertyPath: m_LocalEulerAnglesHint.y
      value: 0.846
      objectReference: {fileID: 0}
    - target: {fileID: 4751312831842026, guid: 8e4e43b7ef4a54c3ba0d2ab823bc9d67, type: 3}
      propertyPath: m_LocalEulerAnglesHint.z
      value: 3.1250002
      objectReference: {fileID: 0}
    - target: {fileID: 4751312831842026, guid: 8e4e43b7ef4a54c3ba0d2ab823bc9d67, type: 3}
      propertyPath: m_LocalScale.y
      value: 0.69642
      objectReference: {fileID: 0}
    m_RemovedComponents: []
  m_SourcePrefab: {fileID: 100100000, guid: 8e4e43b7ef4a54c3ba0d2ab823bc9d67, type: 3}
--- !u!1001 &1176664996
PrefabInstance:
  m_ObjectHideFlags: 0
  serializedVersion: 2
  m_Modification:
    m_TransformParent: {fileID: 0}
    m_Modifications:
    - target: {fileID: 124326, guid: b58f1f87dc68947dfb9766f0cb9ec1fc, type: 3}
      propertyPath: m_Name
      value: WikitudeCamera
      objectReference: {fileID: 0}
    - target: {fileID: 458674, guid: b58f1f87dc68947dfb9766f0cb9ec1fc, type: 3}
      propertyPath: m_LocalPosition.x
      value: 0
      objectReference: {fileID: 0}
    - target: {fileID: 458674, guid: b58f1f87dc68947dfb9766f0cb9ec1fc, type: 3}
      propertyPath: m_LocalPosition.y
      value: 0.5
      objectReference: {fileID: 0}
    - target: {fileID: 458674, guid: b58f1f87dc68947dfb9766f0cb9ec1fc, type: 3}
      propertyPath: m_LocalPosition.z
      value: 35
      objectReference: {fileID: 0}
    - target: {fileID: 458674, guid: b58f1f87dc68947dfb9766f0cb9ec1fc, type: 3}
      propertyPath: m_LocalRotation.x
      value: 0
      objectReference: {fileID: 0}
    - target: {fileID: 458674, guid: b58f1f87dc68947dfb9766f0cb9ec1fc, type: 3}
      propertyPath: m_LocalRotation.y
      value: 0
      objectReference: {fileID: 0}
    - target: {fileID: 458674, guid: b58f1f87dc68947dfb9766f0cb9ec1fc, type: 3}
      propertyPath: m_LocalRotation.z
      value: 0
      objectReference: {fileID: 0}
    - target: {fileID: 458674, guid: b58f1f87dc68947dfb9766f0cb9ec1fc, type: 3}
      propertyPath: m_LocalRotation.w
      value: 1
      objectReference: {fileID: 0}
    - target: {fileID: 458674, guid: b58f1f87dc68947dfb9766f0cb9ec1fc, type: 3}
      propertyPath: m_RootOrder
      value: 1
      objectReference: {fileID: 0}
    - target: {fileID: 458674, guid: b58f1f87dc68947dfb9766f0cb9ec1fc, type: 3}
      propertyPath: m_LocalEulerAnglesHint.x
      value: 0
      objectReference: {fileID: 0}
    - target: {fileID: 458674, guid: b58f1f87dc68947dfb9766f0cb9ec1fc, type: 3}
      propertyPath: m_LocalEulerAnglesHint.y
      value: 0
      objectReference: {fileID: 0}
    - target: {fileID: 458674, guid: b58f1f87dc68947dfb9766f0cb9ec1fc, type: 3}
      propertyPath: m_LocalEulerAnglesHint.z
      value: 0
      objectReference: {fileID: 0}
    - target: {fileID: 11456902, guid: b58f1f87dc68947dfb9766f0cb9ec1fc, type: 3}
      propertyPath: _WikitudeLicenseKey
      value: FAIplXaOQFITwAHxTohgk80NjMiCdB6zkQ2tw/QcqCAWeghdM+EXEmdQ/RPW+qv4BiHmjELXr/NqhVSUmTb/tisP6p3hSDpTocD8MhHw6xQypguIcdf33H9noDUDfNEQfJ22znD5tH4TN9R47PnOtg4HjQRp8GJBGfqIsytTs8xTYWx0ZWRfX6AaXqcbT8SKogn9ivi5G9papI/OPDz5A603j8tSsz/2qzaz9ENciD4V74oBE8NPpHM7n7ZzbuMbDWfA08FO61V2vw8XSXUiPSgcCEBbVVfJDl6XPtUkzKQOaWukkzOfB6270L0HKz5lEMybk1oI7jxmE9CPmmA0HbmHchInFx1NbiV4JND/T5C4awKnnGhURwOyjjVw6hK44FDSIKTtuv4mIkrgRXDs8wbi7wHWatozjAKBqwOINBwxhLx0IGloKUDryugzjKIBUR2g8neMhXvF0rPB5m5tdF+OKFoTbzLJcHlh80ad887yJGoQMF98iieYjciqPERQui2E6HtGOft8hJOWg4DRd6bnZclUu/r7lvmBoVemqQ0JgettZZdnoMEAuaZG2L2KAvzl/lxv2OqeyG+OhicOHfxwXHNkvkE6WWfhO4+6dLuyGQmh/M3MDsdhO4kwBbEfBDTe7Y5lchxXE8nayJTGYYoKycDHOjCBrrP+C7KS9HIJEMKaAK0hG49lBZq7FJvo6xJJ7eH3DBDxp+wXsnLSGBFGJZXdu3uRG8bn2QWhHlGfpLo6u5UGIqyQozD0wohdNiYqqvPdvSn9j7WzFT1SLIE0OV9lD6n/ftt+wQQsdE2+YQlM6StKAH+8LALZ11/u
      objectReference: {fileID: 0}
    m_RemovedComponents: []
  m_SourcePrefab: {fileID: 100100000, guid: b58f1f87dc68947dfb9766f0cb9ec1fc, type: 3}
--- !u!1 &1222712727 stripped
GameObject:
  m_CorrespondingSourceObject: {fileID: 1082729975072450, guid: 8e4e43b7ef4a54c3ba0d2ab823bc9d67,
    type: 3}
  m_PrefabInstance: {fileID: 797403353}
  m_PrefabAsset: {fileID: 0}
--- !u!4 &1222712728 stripped
Transform:
  m_CorrespondingSourceObject: {fileID: 4751312831842026, guid: 8e4e43b7ef4a54c3ba0d2ab823bc9d67,
    type: 3}
  m_PrefabInstance: {fileID: 797403353}
  m_PrefabAsset: {fileID: 0}
--- !u!82 &1222712730
AudioSource:
  m_ObjectHideFlags: 0
  m_CorrespondingSourceObject: {fileID: 0}
  m_PrefabInstance: {fileID: 0}
  m_PrefabAsset: {fileID: 0}
  m_GameObject: {fileID: 1222712727}
  m_Enabled: 1
  serializedVersion: 4
  OutputAudioMixerGroup: {fileID: 0}
  m_audioClip: {fileID: 8300000, guid: 1048aa5cf5f504cc6bdfadc41de49a0c, type: 3}
  m_PlayOnAwake: 1
  m_Volume: 1
  m_Pitch: 1
  Loop: 1
  Mute: 0
  Spatialize: 0
  SpatializePostEffects: 0
  Priority: 128
  DopplerLevel: 1
  MinDistance: 1
  MaxDistance: 500
  Pan2D: 0
  rolloffMode: 0
  BypassEffects: 0
  BypassListenerEffects: 0
  BypassReverbZones: 0
  rolloffCustomCurve:
    serializedVersion: 2
    m_Curve:
    - serializedVersion: 3
      time: 0
      value: 1
      inSlope: 0
      outSlope: 0
      tangentMode: 0
      weightedMode: 0
      inWeight: 0.33333334
      outWeight: 0.33333334
    - serializedVersion: 3
      time: 1
      value: 0
      inSlope: 0
      outSlope: 0
      tangentMode: 0
      weightedMode: 0
      inWeight: 0.33333334
      outWeight: 0.33333334
    m_PreInfinity: 2
    m_PostInfinity: 2
    m_RotationOrder: 4
  panLevelCustomCurve:
    serializedVersion: 2
    m_Curve:
    - serializedVersion: 3
      time: 0
      value: 0
      inSlope: 0
      outSlope: 0
      tangentMode: 0
      weightedMode: 0
      inWeight: 0.33333334
      outWeight: 0.33333334
    m_PreInfinity: 2
    m_PostInfinity: 2
    m_RotationOrder: 4
  spreadCustomCurve:
    serializedVersion: 2
    m_Curve:
    - serializedVersion: 3
      time: 0
      value: 0
      inSlope: 0
      outSlope: 0
      tangentMode: 0
      weightedMode: 0
      inWeight: 0.33333334
      outWeight: 0.33333334
    m_PreInfinity: 2
    m_PostInfinity: 2
    m_RotationOrder: 4
  reverbZoneMixCustomCurve:
    serializedVersion: 2
    m_Curve:
    - serializedVersion: 3
      time: 0
      value: 1
      inSlope: 0
      outSlope: 0
      tangentMode: 0
      weightedMode: 0
      inWeight: 0.33333334
      outWeight: 0.33333334
    m_PreInfinity: 2
    m_PostInfinity: 2
    m_RotationOrder: 4
--- !u!1001 &1240210131
PrefabInstance:
  m_ObjectHideFlags: 0
  serializedVersion: 2
  m_Modification:
    m_TransformParent: {fileID: 0}
    m_Modifications:
    - target: {fileID: 130916, guid: 5d47068e592f24de68efe2fc00b2e73b, type: 3}
      propertyPath: m_Name
      value: ImageTracker
      objectReference: {fileID: 0}
    - target: {fileID: 488580, guid: 5d47068e592f24de68efe2fc00b2e73b, type: 3}
      propertyPath: m_LocalPosition.x
      value: 0
      objectReference: {fileID: 0}
    - target: {fileID: 488580, guid: 5d47068e592f24de68efe2fc00b2e73b, type: 3}
      propertyPath: m_LocalPosition.y
      value: 0
      objectReference: {fileID: 0}
    - target: {fileID: 488580, guid: 5d47068e592f24de68efe2fc00b2e73b, type: 3}
      propertyPath: m_LocalPosition.z
      value: 0
      objectReference: {fileID: 0}
    - target: {fileID: 488580, guid: 5d47068e592f24de68efe2fc00b2e73b, type: 3}
      propertyPath: m_LocalRotation.x
      value: 0
      objectReference: {fileID: 0}
    - target: {fileID: 488580, guid: 5d47068e592f24de68efe2fc00b2e73b, type: 3}
      propertyPath: m_LocalRotation.y
      value: 0
      objectReference: {fileID: 0}
    - target: {fileID: 488580, guid: 5d47068e592f24de68efe2fc00b2e73b, type: 3}
      propertyPath: m_LocalRotation.z
      value: 0
      objectReference: {fileID: 0}
    - target: {fileID: 488580, guid: 5d47068e592f24de68efe2fc00b2e73b, type: 3}
      propertyPath: m_LocalRotation.w
      value: 1
      objectReference: {fileID: 0}
    - target: {fileID: 488580, guid: 5d47068e592f24de68efe2fc00b2e73b, type: 3}
      propertyPath: m_RootOrder
      value: 2
      objectReference: {fileID: 0}
    - target: {fileID: 488580, guid: 5d47068e592f24de68efe2fc00b2e73b, type: 3}
      propertyPath: m_LocalEulerAnglesHint.x
      value: 0
      objectReference: {fileID: 0}
    - target: {fileID: 488580, guid: 5d47068e592f24de68efe2fc00b2e73b, type: 3}
      propertyPath: m_LocalEulerAnglesHint.y
      value: 0
      objectReference: {fileID: 0}
    - target: {fileID: 488580, guid: 5d47068e592f24de68efe2fc00b2e73b, type: 3}
      propertyPath: m_LocalEulerAnglesHint.z
      value: 0
      objectReference: {fileID: 0}
    - target: {fileID: 494530, guid: 5d47068e592f24de68efe2fc00b2e73b, type: 3}
      propertyPath: m_LocalScale.x
      value: 3
      objectReference: {fileID: 0}
    - target: {fileID: 494530, guid: 5d47068e592f24de68efe2fc00b2e73b, type: 3}
      propertyPath: m_LocalScale.y
      value: 3
      objectReference: {fileID: 0}
    - target: {fileID: 494530, guid: 5d47068e592f24de68efe2fc00b2e73b, type: 3}
      propertyPath: m_LocalScale.z
      value: 3
      objectReference: {fileID: 0}
    - target: {fileID: 11427236, guid: 5d47068e592f24de68efe2fc00b2e73b, type: 3}
      propertyPath: _targetCollectionResource._targetPath
      value: Wikitude/Pub.wtc
      objectReference: {fileID: 0}
    m_RemovedComponents: []
  m_SourcePrefab: {fileID: 100100000, guid: 5d47068e592f24de68efe2fc00b2e73b, type: 3}
